…
    ## [1] 51.06601

``` r
# Number of participants per country
d %>%
  group_by(country) %>%
  summarize(n = n()) %>%
  arrange(-n)
```

    ## # A tibble: 29 x 2
    ##    country     n
    ##    <chr>   <int>
    ##  1 IT       2745
    ##  2 AT       2499
    ##  3 CZ       2398
    ##  4 DE       2358
    ##  5 IE       2216
    ##  6 GB       2204
    ##  7 BG       2198
    ##  8 RS       2043
    ##  9 FR       2010
    ## 10 EE       1904
    ## # … with 19 more rows
…
2.2. Second, try to use the `group_by` and `summarise` commands to
produce the average news consumption across countries. If you can, also
estimate the standard deviation per country.

``` r
news_per_country <- d %>%
  group_by(country) %>%
  summarise(m = mean(pol_news, na.rm = T),
            sd = sd(pol_news, na.rm = T))
news_per_country
```

    ## # A tibble: 29 x 3
    ##    country     m    sd
    ##  * <chr>   <dbl> <dbl>
    ##  1 AT       45.8  45.5
    ##  2 BE      153.  279. 
    ##  3 BG      107.  107. 
    ##  4 CH       59.6  87.4
    ##  5 CY       71.2  84.5
    ##  6 CZ       39.6  70.6
    ##  7 DE       63.0  80.7
    ##  8 DK       76.1  85.1
    ##  9 EE       79.5  75.6
    ## 10 ES       80.7 117. 
    ## # … with 19 more rows
…
