Computational Analysis of Digital Communication
…
- When the independent variable is categorical and the dependent variable is numerical

- To highlight differences between groups (despite loosing some information)

- To visualize statistical signficance

---

# Relationships: Regression vs. Scatterplot

.pull-left2[

```
# A tibble: 1,460 x 2
   GrLivArea SalePrice
       <int>     <int>
 1      1710    208500
 2      1262    181500
 3      1786    223500
 4      1717    140000
 5      2198    250000
 6      1362    143000
 7      1694    307000
 8      2090    200000
 9      1774    129900
10      1077    118000
# … with 1,450 more rows
```
…
