Basics of Automated Text Analysis and Dictionary Approaches
…
The “tidytext” package

In this course, we will use the package tidytext, whose core data format is a regular data frame where each row is a word

The function unnest_tokens() also tokenizes, but the resulting data structure differs (a tidy data set)

It thereby determines how we move forward in our analysis

library(tidytext)
tokens <- text_data|>
  unnest_tokens(word, text)   
print(tokens, n = 20)         

# A tibble: 22 × 4
   docid author              work              word    
   <chr> <chr>               <chr>             <chr>   
 1 text1 William Shakespeare Hamlet            to      
 2 text1 William Shakespeare Hamlet            be      
 3 text1 William Shakespeare Hamlet            or      
 4 text1 William Shakespeare Hamlet            not     
 5 text1 William Shakespeare Hamlet            to      
 6 text1 William Shakespeare Hamlet            be      
 7 text1 William Shakespeare Hamlet            that    
 8 text1 William Shakespeare Hamlet            is      
 9 text1 William Shakespeare Hamlet            the     
10 text1 William Shakespeare Hamlet            question
11 text2 William Wordsworth  The Tables Turned come    
12 text2 William Wordsworth  The Tables Turned forth   
13 text2 William Wordsworth  The Tables Turned into    
14 text2 William Wordsworth  The Tables Turned the     
15 text2 William Wordsworth  The Tables Turned light   
16 text2 William Wordsworth  The Tables Turned of      
17 text2 William Wordsworth  The Tables Turned things  
18 text2 William Wordsworth  The Tables Turned let     
19 text2 William Wordsworth  The Tables Turned nature  
20 text2 William Wordsworth  The Tables Turned be      
# ℹ 2 more rows
…
The Data Set

library(sotu)
sotu_text <- bind_cols(sotu_meta, text = sotu_text) |>  # <-- bind texts and meta data
  rename(docid = X) |>                                  # <-- rename unique identifier
  as_tibble()                                           # <-- transform to tidy format
print(sotu_text, n = 25)

# A tibble: 240 × 7
   docid president          year years_active party                 sotu_type text                                      
   <int> <chr>             <int> <chr>        <chr>                 <chr>     <chr>                                     
 1     1 George Washington  1790 1789-1793    Nonpartisan           speech    "Fellow-Citizens of the Senate and House …
 2     2 George Washington  1790 1789-1793    Nonpartisan           speech    "\n\n Fellow-Citizens of the Senate and H…
 3     3 George Washington  1791 1789-1793    Nonpartisan           speech    "\n\n Fellow-Citizens of the Senate and H…
 4     4 George Washington  1792 1789-1793    Nonpartisan           speech    "Fellow-Citizens of the Senate and House …
 5     5 George Washington  1793 1793-1797    Nonpartisan           speech    "\n\n Fellow-Citizens of the Senate and H…
 6     6 George Washington  1794 1793-1797    Nonpartisan           speech    "\n\n Fellow-Citizens of the Senate and H…
 7     7 George Washington  1795 1793-1797    Nonpartisan           speech    "\n\nFellow-Citizens of the Senate and Ho…
 8     8 George Washington  1796 1793-1797    Nonpartisan           speech    "\n\n Fellow-Citizens of the Senate and H…
 9     9 John Adams         1797 1797-1801    Federalist            speech    "\n\n Gentlemen of the Senate and Gentlem…
10    10 John Adams         1798 1797-1801    Federalist            speech    "\n\n Gentlemen of the Senate and Gentlem…
11    11 John Adams         1799 1797-1801    Federalist            speech    "\n\n Gentlemen of the Senate and Gentlem…
12    12 John Adams         1800 1797-1801    Federalist            speech    "\n\n Gentlemen of the Senate and Gentlem…
13    13 Thomas Jefferson   1801 1801-1805    Democratic-Republican written   "\n\n Fellow Citizens of the Senate and H…
14    14 Thomas Jefferson   1802 1801-1805    Democratic-Republican written   "\n\n To the Senate and House of Represen…
15    15 Thomas Jefferson   1803 1801-1805    Democratic-Republican written   "\n\n To The Senate and House of Represen…
16    16 Thomas Jefferson   1804 1801-1805    Democratic-Republican written   "\n\n The Senate and House of Representat…
17    17 Thomas Jefferson   1805 1805-1809    Democratic-Republican written   "\n\n The Senate and House of Representat…
18    18 Thomas Jefferson   1806 1805-1809    Democratic-Republican written   "\n\n The Senate and House of Representat…
19    19 Thomas Jefferson   1807 1805-1809    Democratic-Republican written   "\n\n The Senate and House of Representat…
20    20 Thomas Jefferson   1808 1805-1809    Democratic-Republican written   "\n\n The Senate and House of Representat…
21    21 James Madison      1809 1809-1813    Democratic-Republican written   "\n\n Fellow-Citizens of the Senate and H…
22    22 James Madison      1810 1809-1813    Democratic-Republican written   "\n\n Fellow-Citizens of the Senate and H…
23    23 James Madison      1811 1809-1813    Democratic-Republican written   "\n\n Fellow-Citizens of the Senate and H…
24    24 James Madison      1812 1809-1813    Democratic-Republican written   "\n\n Fellow-Citizens of the Senate and H…
25    25 James Madison      1813 1813-1817    Democratic-Republican written   "\n\n Fellow-Citizens of the Senate and H…
# ℹ 215 more rows
…
Risk for overfitting: With too many features, models tend to fit the noise in the data and not generalize well

Size of the data set: Leads to computationally expensive procedures

Tidy text format is less sparse

The tidy text format is considerably less sparse as it doesn’t include any zeros (there are no rows for words that are not included in the document!)

Can speed up computations, but also allows us to stay within the framework established by the tidyverse

tidy_text |> 
  arrange(-n)

# A tibble: 431,846 × 3
   docid word      n
   <int> <chr> <int>
 1   122 the    2887
 2   124 the    2516
 3   119 the    2432
 4   201 the    2376
 5   123 the    2347
 6   111 the    2338
 7    60 the    2182
 8   110 the    2154
 9   199 the    2143
10   158 the    2142
# ℹ 431,836 more rows
…
[1] 2108

Normalization: Stemming

What if we aren’t interested in the difference between e.g., “trees” and “tree” and we want to treat both together?

Stemming refers to the process of identifying the base word (or stem) for a data set of words and is thus concerned with the linguistics subfield of morphology (i.e., how words are formed).

sotu_tokens |>
  mutate(stem = SnowballC::wordStem(word)) |>
  select(word, stem) |>
  print(n = 12)

# A tibble: 1,988,203 × 2
   word            stem   
   <chr>           <chr>  
 1 fellow          fellow 
 2 citizens        citizen
 3 of              of     
 4 the             the    
 5 senate          senat  
 6 and             and    
 7 house           hous   
 8 of              of     
 9 representatives repres 
10 i               i      
11 embrace         embrac 
12 with            with   
# ℹ 1,988,191 more rows

Normalization: Lemmatization

Instead of using set rules to cut words down to their stems, lemmatization uses knowledge about a language’s structure to reduce words down to their lemmas, the canonical or dictionary forms of words

Lemmatizers use a rich lexical database like ‘WordNet’ to look up word meanings for a given part-of-speech use (Miller 1995)

We can use the package textstem to lemmatize our words

sotu_tokens |>
  mutate(lemmata = textstem::lemmatize_words(word)) |>
  select(word, lemmata) |>
  print(n = 12)

# A tibble: 1,988,203 × 2
   word            lemmata       
   <chr>           <chr>         
 1 fellow          fellow        
 2 citizens        citizen       
 3 of              of            
 4 the             the           
 5 senate          senate        
 6 and             and           
 7 house           house         
 8 of              of            
 9 representatives representative
10 i               i             
11 embrace         embrace       
12 with            with          
# ℹ 1,988,191 more rows
…
sotu_if_idf <- sotu_tokens |>
  filter(president %in% c("Barack Obama", 
                          "Donald Trump", 
                          "George W. Bush", 
                          "William J. Clinton")) |> 
  anti_join(stop_words, by = "word") |> 
  group_by(president, word) |>
  summarize(n = n()) |>
  bind_tf_idf(word, president, n) |>
  group_by(president) |> 
  arrange(-tf_idf)
sotu_if_idf

# A tibble: 16,700 × 6
# Groups:   president [4]
   president          word         n       tf   idf  tf_idf
   <chr>              <chr>    <int>    <dbl> <dbl>   <dbl>
 1 Donald Trump       applause   117 0.0121   0.288 0.00347
 2 Donald Trump       isis        13 0.00134  1.39  0.00186
 3 George W. Bush     iraqis      20 0.00116  1.39  0.00161
 4 Donald Trump       ice         11 0.00114  1.39  0.00157
 5 Donald Trump       totally     10 0.00103  1.39  0.00143
 6 George W. Bush     11th        17 0.000985 1.39  0.00137
 7 William J. Clinton welfare     89 0.00392  0.288 0.00113
 8 George W. Bush     saddam      25 0.00145  0.693 0.00100
 9 Donald Trump       birthday     7 0.000722 1.39  0.00100
10 Donald Trump       c.j          7 0.000722 1.39  0.00100
# ℹ 16,690 more rows
…
Emotionality per speech

For example, we can compute the amount of words coded with a particular emotions per speech

library(ggridges)

# Summarize data
sotu_plot_data <- sotu_emotions2 |>
  group_by(docid, sentiment) |>
  summarize(n = n()) |>
  mutate(prop = n/sum(n))
sotu_plot_data

# A tibble: 2,640 × 4
# Groups:   docid [240]
   docid sentiment        n    prop
   <int> <chr>        <int>   <dbl>
 1     1 anger           10 0.00756
 2     1 anticipation    55 0.0416 
 3     1 disgust          4 0.00303
 4     1 fear            20 0.0151 
 5     1 joy             40 0.0303 
 6     1 negative        23 0.0174 
 7     1 positive       159 0.120  
 8     1 sadness          6 0.00454
 9     1 surprise        24 0.0182 
10     1 trust           98 0.0741 
# ℹ 2,630 more rows
…
