Computational Analysis of Digital Communication
…
In most cases, a score will be computed (e.g. sentiment = positive - negative words)

Problems: Negation, irony, descriptive rather than evaluative statements

Example: The State of the Union Speech Corpus

library(quanteda.corpora)
library(quanteda.dictionaries)
library(quanteda.textplots)

data_df <- convert(data_corpus_sotu, "data.frame") %>%
  as_tibble
data_df

# A tibble: 241 × 8
   doc_id           text               FirstName President Date       delivery type  party
   <chr>            <chr>              <chr>     <chr>     <date>     <fct>    <fct> <fct>
 1 Washington-1790  "Fellow-Citizens … George    Washingt… 1790-01-08 spoken   SOTU  Inde…
 2 Washington-1790b "Fellow-Citizens … George    Washingt… 1790-12-08 spoken   SOTU  Inde…
 3 Washington-1791  "Fellow-Citizens … George    Washingt… 1791-10-25 spoken   SOTU  Inde…
 4 Washington-1792  "Fellow-Citizens … George    Washingt… 1792-11-06 spoken   SOTU  Inde…
 5 Washington-1793  "Fellow-Citizens … George    Washingt… 1793-12-03 spoken   SOTU  Inde…
 6 Washington-1794  "Fellow-Citizens … George    Washingt… 1794-11-19 spoken   SOTU  Inde…
 7 Washington-1795  "Fellow-Citizens … George    Washingt… 1795-12-08 spoken   SOTU  Inde…
 8 Washington-1796  "Fellow-Citizens … George    Washingt… 1796-12-07 spoken   SOTU  Inde…
 9 Adams-1797       "Gentlemen of the… John      Adams     1797-11-22 spoken   SOTU  Fede…
10 Adams-1798       "Gentlemen of the… John      Adams     1798-12-08 spoken   SOTU  Fede…
# … with 231 more rows
…
