Text Classification Using Classic Machine Learning
…
Let’s check out a song

library(tidytext)
lyrics_data |> 
  filter(Artist == "Radiohead" & Song == "Paranoid Android") |> 
  unnest_tokens(lines, text, token = "sentences") |> 
  select(lines) |> 
  print(n = 20)

# A tibble: 39 × 1
   lines                                                        
   <chr>                                                        
 1 please could you stop the noise, i'm trying to get some rest.
 2 from all the unborn chicken voices in my head.               
 3 what's this...?                                              
 4 (i may be paranoid, but not an android).                     
 5 what's this...?                                              
 6 (i may be paranoid, but not an android).                     
 7 when i am king, you will be first against the wall.          
 8 with your opinion which is of no consequence at all.         
 9 what's this...?                                              
10 (i may be paranoid, but no android).                         
11 what's this...?                                              
12 (i may be paranoid, but no android).                         
13 ambition makes you look pretty ugly.                         
14 kicking and squealing gucci little piggy.                    
15 you don't remember.                                          
16 you don't remember.                                          
17 why don't you remember my name?.                             
18 off with his head, man.                                      
19 off with his head, man.                                      
20 why don't you remember my name?.                             
# ℹ 19 more rows
…
library(textrecipes)

# Create recipe for text preprocessing
rec <- recipe(binary_genre ~ text, data = lyrics_data) |>
  step_tokenize(text, options = list(strip_punct = T, strip_numeric = T)) |>  
  step_stopwords(text, language = "en") |>    
  step_tokenfilter(text, min_times = 20, max_tokens = 1000 ) |> 
  step_tf(all_predictors()) 

# "Bake" (check) based on recipe to see text preprocessing
rec |> 
  prep(train_data) |>
  bake(new_data=NULL)

# A tibble: 10,445 × 1,001
   binary_genre tf_text_2x tf_text_across tf_text_act tf_text_afraid tf_text_ah tf_text_ahead `tf_text_ain't`
   <fct>             <int>          <int>       <int>          <int>      <int>         <int>           <int>
 1 rock                  0              0           0              0          0             0               0
 2 other                 0              0           0              0          0             0               0
 3 other                 0              0           0              0          0             0               0
 4 rock                  0              0           0              0          0             0               0
 5 other                 0              0           0              0          0             0               2
 6 rock                  0              0           0              0          0             0               2
 7 other                 0              0           1              0          0             0               1
 8 rock                  0              1           0              0          0             0               0
 9 other                 0              0           0              0          0             0               0
10 rock                  0              0           0              1          0             0               1
# ℹ 10,435 more rows
# ℹ 993 more variables: tf_text_aint <int>, tf_text_air <int>, tf_text_alive <int>, tf_text_almost <int>,
#   tf_text_alone <int>, tf_text_along <int>, tf_text_already <int>, tf_text_alright <int>, tf_text_always <int>,
#   tf_text_angel <int>, tf_text_angels <int>, tf_text_another <int>, tf_text_answer <int>, tf_text_anybody <int>,
#   tf_text_anymore <int>, tf_text_anyone <int>, tf_text_anything <int>, tf_text_anyway <int>, tf_text_apart <int>,
#   tf_text_arms <int>, tf_text_around <int>, tf_text_ask <int>, tf_text_asking <int>, tf_text_ass <int>,
#   tf_text_awake <int>, tf_text_away <int>, tf_text_ay <int>, tf_text_b <int>, tf_text_ba <int>, tf_text_babe <int>, …
…
# Fitting the naive bayes model
m_nb <- fit(nb_workflow, data = training(split))     # Fitting the model

# Predict outcome in test set
predict_nb <- tibble(.pred_class = predict(m_nb, test_baked)) |>     # Using 'predict' to predict genre in test set 
  bind_cols(select(testing(split), binary_genre)) |>                 # Add actual genre of test set
  rename(predicted=.pred_class, actual=binary_genre) 

# Check
predict_nb 

# A tibble: 6,964 × 2
   predicted actual
   <fct>     <fct> 
 1 rock      rock  
 2 other     other 
 3 rock      rock  
 4 rock      other 
 5 rock      other 
 6 rock      other 
 7 rock      other 
 8 other     other 
 9 other     other 
10 rock      other 
# ℹ 6,954 more rows
…
# Fitting the logistic regression model
m_logistic <- fit(lr_workflow, data = training(split))  # Fit model

# Predict outcome in test set
predict_lr <- predict(m_logistic, new_data=test_data) |>  # Predict outcome in test data
  bind_cols(select(testing(split), binary_genre)) |>      # Add actual outcome
  rename(predicted=.pred_class, actual=binary_genre) 

# Check
predict_lr

# A tibble: 6,964 × 2
   predicted actual
   <fct>     <fct> 
 1 rock      rock  
 2 other     other 
 3 rock      rock  
 4 other     other 
 5 other     other 
 6 other     other 
 7 rock      other 
 8 other     other 
 9 other     other 
10 rock      other 
# ℹ 6,954 more rows
…
# Fitting the logistic regression model
m_svm <- fit(svm_workflow, data = train_data)

# Predict outcome in test data
predict_svm <- predict(m_svm, new_data=testing(split)) |>
  bind_cols(select(testing(split), binary_genre)) |>
  rename(predicted=.pred_class, actual=binary_genre)

# Check
predict_svm

# A tibble: 6,964 × 2
   predicted actual
   <fct>     <fct> 
 1 rock      rock  
 2 other     other 
 3 rock      rock  
 4 other     other 
 5 rock      other 
 6 other     other 
 7 rock      other 
 8 other     other 
 9 other     other 
10 rock      other 
# ℹ 6,954 more rows
…
Evaluation

The result of this tuning grid search is a table that shows the best combinations of parameters in descending order

We can see here that 9 nodes in one hidden layer, a penalty of 0.0001 and 600 epochs lead to the best accuracy, but it is actually worse than our original model with 6 nodes and a penalty of 0.001 and 400 epochs

# Get best fit
best_fit <- show_best(mlp_reg_tune, n = 48) |> 
  select(-.estimator, -.config, -.metric) |> 
  rename(accuracy = mean)
best_fit

# A tibble: 48 × 6
   hidden_units      penalty epochs accuracy     n  std_err
          <int>        <dbl>  <int>    <dbl> <int>    <dbl>
 1            9 0.0001          600    0.746     2 0.00125 
 2            3 0.1             600    0.745     2 0.00849 
 3            9 0.1             600    0.745     2 0.00918 
 4            6 0.0001          600    0.743     2 0.00429 
 5            9 0.0000000001    600    0.742     2 0.00447 
 6            6 0.0000000001    600    0.742     2 0.00211 
 7            6 0.0000001       600    0.741     2 0.00257 
 8            9 0.0000001       600    0.740     2 0.000674
 9            3 0.0000001       600    0.740     2 0.000360
10            1 0.1             600    0.739     2 0.00182 
# ℹ 38 more rows
…
