Text Classification Using Classic Machine Learning
…
Data: Predicting Discipline From Abstracts

For the remainder of this lecture, I will exemplify different approaches to supervised text classification using a data set that contains the title and abstract of scientific articles and their discipline.

science_data <- read_csv("data/science.csv") |> 
  filter(label != "biology" & label != "finance" & label != "mathematics")
science_data |> 
  select(id, label, title, text)

# A tibble: 15,880 × 4
      id label            title                                                                                    text 
   <dbl> <chr>            <chr>                                                                                    <chr>
 1     1 computer science Reconstructing Subject-Specific Effect Maps                                              "Rec…
 2     2 computer science Rotation Invariance Neural Network                                                       "Rot…
 3     5 computer science Comparative study of Discrete Wavelet Transforms and Wavelet Tensor Train decomposition… "Com…
 4     7 physics          On the rotation period and shape of the hyperbolic asteroid 1I/`Oumuamua (2017) U1 from… "On …
 5     8 physics          Adverse effects of polymer coating on heat transport at solid-liquid interface           "Adv…
 6     9 physics          SPH calculations of Mars-scale collisions: the role of the Equation of State, material … "SPH…
 7    11 computer science A global sensitivity analysis and reduced order models for hydraulically-fractured hori… "A g…
 8    12 physics          Role-separating ordering in social dilemmas controlled by topological frustration        "Rol…
 9    13 physics          Dynamics of exciton magnetic polarons in CdMnSe/CdMgSe quantum wells: the effect of sel… "Dyn…
10    14 computer science On Varieties of Ordered Automata                                                         "On …
# ℹ 15,870 more rows
…
library(textrecipes)

# Create recipe for text preprocessing
rec <- recipe(label ~ text, data = science_data) |>
  step_tokenize(text, options = list(strip_punct = T, strip_numeric = T)) |>  # <-- Tokenization
  step_stopwords(text, language = "en") |>                                    # <-- Remove stop words
  step_tf(all_predictors())                                                   # <-- Create DFM

# "Bake" (check) based on recipe to see text preprocessing
rec |> 
  prep(train_data) |>
  bake(new_data=NULL)

# A tibble: 14,292 × 44,333
   label  tf_text__aster tf_text__b tf_text__c tf_text__catalogue tf_text__d tf_text__e tf_text__f tf_text__g tf_text__h
   <fct>           <int>      <int>      <int>              <int>      <int>      <int>      <int>      <int>      <int>
 1 stati…              0          0          0                  0          0          0          0          0          0
 2 physi…              0          0          0                  0          0          0          0          0          0
 3 physi…              0          0          0                  0          0          0          0          0          0
 4 compu…              0          0          0                  0          0          0          0          0          0
 5 compu…              0          0          0                  0          0          0          0          0          0
 6 compu…              0          0          0                  0          1          0          0          0          0
 7 compu…              0          0          0                  0          0          0          0          0          0
 8 physi…              0          0          0                  0          0          0          0          0          0
 9 physi…              0          0          0                  0          0          0          0          0          0
10 compu…              0          0          0                  0          0          0          0          0          0
# ℹ 14,282 more rows
# ℹ 44,323 more variables: tf_text__i <int>, tf_text__j <int>, tf_text__k <int>, tf_text__m <int>, tf_text__n <int>,
#   tf_text__p <int>, tf_text__q <int>, tf_text__r <int>, tf_text__s <int>, tf_text__svd <int>, tf_text__t <int>,
#   tf_text__u <int>, tf_text__v <int>, tf_text__x <int>, tf_text__y <int>, tf_text__z <int>, tf_text_0.0001s <int>,
#   tf_text_0.031mj <int>, tf_text_0.05dex <int>, tf_text_0.12v <int>, tf_text_0.18um <int>, tf_text_0.1c <int>,
#   tf_text_0.1dex <int>, tf_text_0.254r <int>, tf_text_0.2c <int>, tf_text_0.2db <int>, tf_text_0.2l <int>,
#   tf_text_0.2r_ <int>, tf_text_0.3a <int>, tf_text_0.3t_ <int>, tf_text_0.4gyr <int>, tf_text_0.4k <int>, …
…
