Computational Analysis of Digital Communication
…
s <- read_csv("data/lyrics-data.csv")
a <- read_csv("data/artists-data.csv")

a <- a %>%
  group_by(Artist) %>%
  filter(row_number()==1) %>%
  rename(ALink = Link)

d <- left_join(s, a) %>%
  unique %>% group_by(SLink) %>%
  filter(row_number() == 1) %>%
  filter(!is.na(Genre))
d

# A tibble: 161,289 × 10
# Groups:   SLink [161,289]
   ALink           SName  SLink Lyric Idiom Artist Songs Popularity Genre Genres
   <chr>           <chr>  <chr> <chr> <chr> <chr>  <dbl>      <dbl> <chr> <chr> 
 1 /10000-maniacs/ More … /100… "I c… ENGL… 10000…   110        0.3 Rock  Rock;…
 2 /10000-maniacs/ Becau… /100… "Tak… ENGL… 10000…   110        0.3 Rock  Rock;…
 3 /10000-maniacs/ These… /100… "The… ENGL… 10000…   110        0.3 Rock  Rock;…
 4 /10000-maniacs/ A Cam… /100… "A l… ENGL… 10000…   110        0.3 Rock  Rock;…
 5 /10000-maniacs/ Every… /100… "Tru… ENGL… 10000…   110        0.3 Rock  Rock;…
 6 /10000-maniacs/ Don't… /100… "Don… ENGL… 10000…   110        0.3 Rock  Rock;…
 7 /10000-maniacs/ Acros… /100… "Wel… ENGL… 10000…   110        0.3 Rock  Rock;…
 8 /10000-maniacs/ Plann… /100… "[ m… ENGL… 10000…   110        0.3 Rock  Rock;…
 9 /10000-maniacs/ Rainy… /100… "On … ENGL… 10000…   110        0.3 Rock  Rock;…
10 /10000-maniacs/ Anthe… /100… "For… ENGL… 10000…   110        0.3 Rock  Rock;…
# … with 161,279 more rows
…
