Computational Analysis of Digital Communication
…
# Example: The State of the Union Speech Corpus

```r
library(quanteda.corpora)
library(quanteda.dictionaries)
library(quanteda.textplots)

data_df <- convert(data_corpus_sotu, "data.frame") %>%
  as_tibble
data_df
```

```
# A tibble: 241 x 8
   doc_id    text                     FirstName President Date       delivery type  party 
   <chr>     <chr>                    <chr>     <chr>     <date>     <fct>    <fct> <fct> 
 1 Washingt… "Fellow-Citizens of the… George    Washingt… 1790-01-08 spoken   SOTU  Indep…
 2 Washingt… "Fellow-Citizens of the… George    Washingt… 1790-12-08 spoken   SOTU  Indep…
 3 Washingt… "Fellow-Citizens of the… George    Washingt… 1791-10-25 spoken   SOTU  Indep…
 4 Washingt… "Fellow-Citizens of the… George    Washingt… 1792-11-06 spoken   SOTU  Indep…
 5 Washingt… "Fellow-Citizens of the… George    Washingt… 1793-12-03 spoken   SOTU  Indep…
 6 Washingt… "Fellow-Citizens of the… George    Washingt… 1794-11-19 spoken   SOTU  Indep…
 7 Washingt… "Fellow-Citizens of the… George    Washingt… 1795-12-08 spoken   SOTU  Indep…
 8 Washingt… "Fellow-Citizens of the… George    Washingt… 1796-12-07 spoken   SOTU  Indep…
 9 Adams-17… "Gentlemen of the Senat… John      Adams     1797-11-22 spoken   SOTU  Feder…
10 Adams-17… "Gentlemen of the Senat… John      Adams     1798-12-08 spoken   SOTU  Feder…
# … with 231 more rows
```
…
