Word Embeddings, Transformers, and Large Language Models
…
glove_fn = "glove.6B.50d.10k.w2v.txt"
url = glue::glue("https://cssbook.net/d/{glove_fn}")
if (!file.exists(glove_fn)) 
    download.file(url, glove_fn)

# Data wrangling
wv_tibble <- read_delim(glove_fn, skip=1, delim=" ", quote="", 
    col_names = c("word", paste0("d", 1:50)))

# 10 highest scoring words on dimension 1
wv_tibble |> 
  arrange(-d1) |> 
  select(1:10)

# A tibble: 10,000 × 10
   word          d1     d2      d3      d4      d5     d6      d7      d8     d9
   <chr>      <dbl>  <dbl>   <dbl>   <dbl>   <dbl>  <dbl>   <dbl>   <dbl>  <dbl>
 1 airbus      2.60 -0.536  0.414   0.339  -0.0510  0.848 -0.722  -0.361   0.869
 2 spacecraft  2.52  0.744  1.66    0.0591 -0.252  -0.243 -0.594  -0.417   0.460
 3 fiat        2.29 -1.15   0.488   0.518   0.312  -0.132  0.0520 -0.661  -0.859
 4 naples      2.27 -0.106 -1.27   -0.0932 -0.437  -1.18  -0.0858  0.469  -1.08 
 5 di          2.24 -0.603 -1.47    0.354   0.244  -1.09   0.357  -0.331  -0.564
 6 planes      2.20 -0.831  1.34   -0.348  -0.209  -0.282 -0.824  -0.481   0.211
 7 bombings    2.16 -0.222  0.383   0.0723 -0.305   0.632  0.125  -0.123  -0.171
 8 flights     2.15  0.350 -0.0175 -0.0238 -1.39   -0.812 -0.742   0.204   1.23 
 9 orbit       2.14  1.08   1.66   -0.180   0.323  -0.394  0.0476 -0.0108  0.403
10 plane       2.11 -0.107  0.972   0.122   0.571  -0.136 -0.676   0.117   0.472
# ℹ 9,990 more rows
…
