Computational Analysis of Digital Communication
…
    - Less complex models, so less risk of overfitting (but it’s still a risk!)
    - Less focus on prediction 
    - But we sometimes could, and should use this approach!

---

# Example: Predicting music genre from lyrics

- This data is scraped from the "Vagalume" website, so it depends on their storing and sharing millions of song lyrics (not really representative or complete)

- Many different songs, but not all types of music are represented in this data set

```
# A tibble: 161,289 x 10
# Groups:   SLink [161,289]
   ALink   SName     SLink         Lyric                       Idiom Artist  Songs Popularity Genre Genres              
   <chr>   <chr>     <chr>         <chr>                       <chr> <chr>   <dbl>      <dbl> <chr> <chr>               
 1 /10000… More Tha… /10000-mania… "I could feel at the time.… ENGL… 10000 …   110        0.3 Rock  Rock; Pop; Electron…
 2 /10000… Because … /10000-mania… "Take me now, baby, here a… ENGL… 10000 …   110        0.3 Rock  Rock; Pop; Electron…
 3 /10000… These Ar… /10000-mania… "These are. These are days… ENGL… 10000 …   110        0.3 Rock  Rock; Pop; Electron…
 4 /10000… A Campfi… /10000-mania… "A lie to say, \"O my moun… ENGL… 10000 …   110        0.3 Rock  Rock; Pop; Electron…
 5 /10000… Everyday… /10000-mania… "Trudging slowly over wet … ENGL… 10000 …   110        0.3 Rock  Rock; Pop; Electron…
 6 /10000… Don't Ta… /10000-mania… "Don't talk, I will listen… ENGL… 10000 …   110        0.3 Rock  Rock; Pop; Electron…
 7 /10000… Across T… /10000-mania… "Well they left then in th… ENGL… 10000 …   110        0.3 Rock  Rock; Pop; Electron…
 8 /10000… Planned … /10000-mania… "[ music: Dennis Drew/lyri… ENGL… 10000 …   110        0.3 Rock  Rock; Pop; Electron…
 9 /10000… Rainy Day /10000-mania… "On bended kneeI've looked… ENGL… 10000 …   110        0.3 Rock  Rock; Pop; Electron…
10 /10000… Anthem F… /10000-mania… "For whom do the bells tol… ENGL… 10000 …   110        0.3 Rock  Rock; Pop; Electron…
# … with 161,279 more rows
```
…
