Computational Analysis of Digital Communication
…
Probabilites of topics per document

From the topic model, we can extract a table that shows us the probabilities of a topic being written about in the different texts (bear in mind, several topics can be in one text)

We see for example, that there is a high probability of the text 7 being about topic 3 (astrophysics)

posterior(m)$topics %>% 
  as.data.frame() %>%
  rownames_to_column("doc") %>%
  as_tibble

# A tibble: 5,000 × 7
   doc        `1`      `2`     `3`      `4`      `5`     `6`
   <chr>    <dbl>    <dbl>   <dbl>    <dbl>    <dbl>   <dbl>
 1 text1  0.234   0.000569 0.0177  0.695    0.000569 0.0518 
 2 text2  0.00198 0.00198  0.00198 0.753    0.239    0.00198
 3 text3  0.00224 0.00224  0.00224 0.00224  0.989    0.00224
 4 text4  0.391   0.00162  0.00162 0.00162  0.375    0.229  
 5 text5  0.341   0.00136  0.00136 0.654    0.00136  0.00136
 6 text6  0.0105  0.000956 0.0583  0.000956 0.919    0.0105 
 7 text7  0.00198 0.0415   0.951   0.00198  0.00198  0.00198
 8 text8  0.00150 0.00150  0.00150 0.0465   0.00150  0.947  
 9 text9  0.0179  0.00162  0.229   0.00162  0.00162  0.748  
10 text10 0.00124 0.373    0.00124 0.212    0.100    0.311  
# … with 4,990 more rows
…
[1] "Rotation invariance and translation invariance have great values in image\nrecognition tasks. In this paper, we bring a new architecture in convolutional\nneural network (CNN) named cyclic convolutional layer to achieve rotation\ninvariance in 2-D symbol recognition. We can also get the position and\norientation of the 2-D symbol by the network to achieve detection purpose for\nmultiple non-overlap target. Last but not least, this architecture can achieve\none-shot learning in some cases using those invariance.\n"

Substantive analyses

Depending on the research questions, we now may for example want to describe the topic prevalence in the corpus.

(table <-  posterior(m)$topics %>%
  as.data.frame %>%
  rownames_to_column("docs") %>%
  gather(topic, value, -docs) %>%
  as_tibble %>%
  arrange(docs, value))

# A tibble: 30,000 × 3
   docs   topic    value
   <chr>  <chr>    <dbl>
 1 text1  2     0.000569
 2 text1  5     0.000569
 3 text1  3     0.0177  
 4 text1  6     0.0518  
 5 text1  1     0.234   
 6 text1  4     0.695   
 7 text10 1     0.00124 
 8 text10 3     0.00124 
 9 text10 5     0.100   
10 text10 4     0.212   
# … with 29,990 more rows
…
