Computational Analysis of Digital Communication
…
Getting Text conversations with rwhatsapp

Using the package rwhatsapp, we can easly read this into R to get an interesting corpus:

library(rwhatsapp)
chat <- rwa_read("data/_chat.txt") |> 
  select(-author)
chat

# A tibble: 45 × 5
   time                text                             source emoji  emoji_name
   <dttm>              <chr>                            <chr>  <list> <list>    
 1 2023-11-28 20:52:12 "‎Messages and calls are end-to-… data/… <NULL> <NULL>    
 2 2023-11-28 20:52:12 "‎You created group “Replication… data/… <NULL> <NULL>    
 3 2023-11-28 20:52:34 "‎image omitted"                  data/… <NULL> <NULL>    
 4 2023-11-28 20:55:05 "Major changes to the table in … data/… <NULL> <NULL>    
 5 2023-11-28 20:57:53 "That's all I can manage tonigh… data/… <chr>  <chr [1]> 
 6 2023-11-28 21:05:47 "Thanks and good to hear baby i… data/… <NULL> <NULL>    
 7 2023-11-29 10:12:05 "Looks good! I like it. A few n… data/… <NULL> <NULL>    
 8 2023-11-29 10:14:25 "But you even used the word \"g… data/… <NULL> <NULL>    
 9 2023-11-29 10:16:22 "Also I am not sure about the a… data/… <NULL> <NULL>    
10 2023-11-29 10:16:23 "See e.g., this paper's figure … data/… <NULL> <NULL>    
# ℹ 35 more rows
…
