…
``` r
# dataset 2
trump <- results_state %>% 
  group_by(state, party) %>% 
  mutate(vote_prop=votes/sum(votes)) %>% 
  filter(candidate=="Donald Trump")
trump
```

    ## # A tibble: 46 x 5
    ## # Groups:   state, party [46]
    ##    state       party      candidate      votes vote_prop
    ##    <chr>       <chr>      <chr>          <dbl>     <dbl>
    ##  1 Alabama     Republican Donald Trump  371735     0.444
    ##  2 Alaska      Republican Donald Trump    7346     0.335
    ##  3 Arizona     Republican Donald Trump  249916     0.574
    ##  4 Arkansas    Republican Donald Trump  133144     0.336
    ##  5 California  Republican Donald Trump 1174829     0.786
    ##  6 Connecticut Republican Donald Trump  123367     0.591
    ##  7 Delaware    Republican Donald Trump   42472     0.626
    ##  8 Florida     Republican Donald Trump 1077221     0.473
    ##  9 Georgia     Republican Donald Trump  501707     0.393
    ## 10 Hawaii      Republican Donald Trump    5677     0.429
    ## # … with 36 more rows
…
