…
Instead of `summarize`, you can also run `mutate` with summarization
functions on grouped data. In that case, the summary is computer per
group, but instead of replacing the data frame with only the summarized
data, the new column is added to the existing data frame, with the
values repeated within a group:

``` r
polls |> group_by(Question) |> mutate(Mean_Support=mean(Support))
```

    ## # A tibble: 57 × 5
    ## # Groups:   Question [8]
    ##    Question     Population        Pollster           Support Mean_Support
    ##    <chr>        <chr>             <chr>                <dbl>        <dbl>
    ##  1 age-21       Registered Voters CNN/SSRS                72         75.9
    ##  2 age-21       Adults            NPR/Ipsos               82         75.9
    ##  3 age-21       Adults            Rasmussen               67         75.9
    ##  4 age-21       Registered Voters Harris Interactive      84         75.9
    ##  5 age-21       Registered Voters Quinnipiac              78         75.9
    ##  6 age-21       Registered Voters YouGov                  72         75.9
    ##  7 age-21       Registered Voters Morning Consult         76         75.9
    ##  8 arm-teachers Registered Voters YouGov/Huffpost         41         42  
    ##  9 arm-teachers Adults            CBS News                44         42  
    ## 10 arm-teachers Adults            Rasmussen               43         42  
    ## # ℹ 47 more rows
…
``` r
polls |> group_by(Question) |> mutate(Mean_Support=mean(Support), difference=____)
```

**Solution:**

``` r
polls |> group_by(Question) |> mutate(Mean_Support=mean(Support), difference=Support - Mean_Support)
```

    ## # A tibble: 57 × 6
    ## # Groups:   Question [8]
    ##    Question     Population        Pollster       Support Mean_Support difference
    ##    <chr>        <chr>             <chr>            <dbl>        <dbl>      <dbl>
    ##  1 age-21       Registered Voters CNN/SSRS            72         75.9     -3.86 
    ##  2 age-21       Adults            NPR/Ipsos           82         75.9      6.14 
    ##  3 age-21       Adults            Rasmussen           67         75.9     -8.86 
    ##  4 age-21       Registered Voters Harris Intera…      84         75.9      8.14 
    ##  5 age-21       Registered Voters Quinnipiac          78         75.9      2.14 
    ##  6 age-21       Registered Voters YouGov              72         75.9     -3.86 
    ##  7 age-21       Registered Voters Morning Consu…      76         75.9      0.143
    ##  8 arm-teachers Registered Voters YouGov/Huffpo…      41         42       -1    
    ##  9 arm-teachers Adults            CBS News            44         42        2    
    ## 10 arm-teachers Adults            Rasmussen           43         42        1    
    ## # ℹ 47 more rows
…
Can you compute the z-score for all polls? To do this, you can start
from the code above but use mutate rather than summarize to compute the
mean and standard deviation per question. Then, you compute the new
column by comparing the Support for that question to the computed mean.

``` r
polls |>
  group_by(Question) |>
  mutate(mean=mean(Support),  sd=sd(Support))
```

    ## # A tibble: 57 × 6
    ## # Groups:   Question [8]
    ##    Question     Population        Pollster           Support  mean    sd
    ##    <chr>        <chr>             <chr>                <dbl> <dbl> <dbl>
    ##  1 age-21       Registered Voters CNN/SSRS                72  75.9  6.01
    ##  2 age-21       Adults            NPR/Ipsos               82  75.9  6.01
    ##  3 age-21       Adults            Rasmussen               67  75.9  6.01
    ##  4 age-21       Registered Voters Harris Interactive      84  75.9  6.01
    ##  5 age-21       Registered Voters Quinnipiac              78  75.9  6.01
    ##  6 age-21       Registered Voters YouGov                  72  75.9  6.01
    ##  7 age-21       Registered Voters Morning Consult         76  75.9  6.01
    ##  8 arm-teachers Registered Voters YouGov/Huffpost         41  42    1.55
    ##  9 arm-teachers Adults            CBS News                44  42    1.55
    ## 10 arm-teachers Adults            Rasmussen               43  42    1.55
    ## # ℹ 47 more rows

**Solution:**

``` r
polls |>
  group_by(Question) |>
  mutate(mean=mean(Support),  sd=sd(Support)) |>
  mutate(zscore = (Support - mean) / sd)
```

    ## # A tibble: 57 × 7
    ## # Groups:   Question [8]
    ##    Question     Population        Pollster           Support  mean    sd  zscore
    ##    <chr>        <chr>             <chr>                <dbl> <dbl> <dbl>   <dbl>
    ##  1 age-21       Registered Voters CNN/SSRS                72  75.9  6.01 -0.642 
    ##  2 age-21       Adults            NPR/Ipsos               82  75.9  6.01  1.02  
    ##  3 age-21       Adults            Rasmussen               67  75.9  6.01 -1.47  
    ##  4 age-21       Registered Voters Harris Interactive      84  75.9  6.01  1.35  
    ##  5 age-21       Registered Voters Quinnipiac              78  75.9  6.01  0.356 
    ##  6 age-21       Registered Voters YouGov                  72  75.9  6.01 -0.642 
    ##  7 age-21       Registered Voters Morning Consult         76  75.9  6.01  0.0238
    ##  8 arm-teachers Registered Voters YouGov/Huffpost         41  42    1.55 -0.645 
    ##  9 arm-teachers Adults            CBS News                44  42    1.55  1.29  
    ## 10 arm-teachers Adults            Rasmussen               43  42    1.55  0.645 
    ## # ℹ 47 more rows
…
