…
``` r
# Filtering based on support vector machines algorithm
tweets_new %>%
  filter(!is_retweet) %>%
  filter(pred_svm == 1) %>%   ## All tweets that are coded as "aggressive"
  select(text) %>%
  print(n = 25)
```

    ## # A tibble: 426 × 1
    ##    text                                                                         
    ##    <chr>                                                                        
    ##  1 "+ remember to lockdown yourself for txt, report and block if you see any tr…
    ##  2 "@realworldbusin2 I'd have to disagree with that. Daniel McConnell gives ver…
    ##  3 "@F0RKANGYESEO POETRY SUCKS so glad my year doesn't have to do it bcus lockd…
    ##  4 "#LateralFlow Sky News: https://t.co/LCjqk6lUji"                             
    ##  5 "BREAKING: The UK has recorded 165 #COVID19 related deaths and 42,484 positi…
    ##  6 "@4YNJN oh, we're on a txt lockdown meaning we won't be engaging with fanwar…
    ##  7 "make good use of the mute and block button now that we're on a txt lockdown…
    ##  8 "Ancient fat reducing eating routine programs lose money owing to  excess fa…
    ##  9 "@JinkiWaistPls I really want to visittttt this place after no lockdown, non…
    ## 10 "I've pruned all the bigger shrubs while they tidied up all the pot plants. …
    ## 11 "COVID news live: UK records another 42,484 daily coronavirus cases and 165 …
    ## 12 "ANC's lockdown regulations were very anti black and anti poor. That party h…
    ## 13 "Austria introduced the toughest in an array of pandemic restrictions that a…
    ## 14 "Mandatory #vaccination\nis not free will as promoted. It is an action with …
    ## 15 "@Belfasteve Fuck, you’re not back in Lockdown are you?"                     
    ## 16 "#lorraine Pepper Pig YouGov\n#COVID19 #COVIDisAirborne #coronavirus #Corona…
    ## 17 "@eNCA But traders know that ppl won't lockdown and they (the traders) will …
    ## 18 "@Terry_Bull19 @kopette1 @GNev2 Lol I can absolutely guarantee you’d be one …
    ## 19 "COVID news live: AstraZeneca vaccine 'may be protecting UK from EU coronavi…
    ## 20 "From today's @ftopinion #lockdown #protests #antivaxxers https://t.co/JawZx…
    ## 21 "🧐\n\nWe may be finally getting somewhere.\n\nhttps://t.co/SyCgkID0GA\n#COVI…
    ## 22 "Minds Behind #India's Success.\n#COVAXIN achieves, India recovers. \n#coron…
    ## 23 "@MethiaLydiaN The lockdown hasn’t stopped them from their online streams. T…
    ## 24 "Slovakia proposes lockdown amid record infection surge https://t.co/54OONxe…
    ## 25 "COVID news live: AstraZeneca vaccine 'may be protecting UK from EU coronavi…
    ## # … with 401 more rows

``` r
# Filtering based on probability
tweets_new %>%
  filter(!is_retweet) %>%
  filter(pred_nb_prop > .95) %>%  # All tweets that are highly likely to be "aggressive"
  select(text) %>%
  print(n = 25)
```

    ## # A tibble: 136 × 1
    ##    text                                                                         
    ##    <chr>                                                                        
    ##  1 "BREAKING: The UK has recorded 165 #COVID19 related deaths and 42,484 positi…
    ##  2 "\"Looking across Europe we can see very clearly that the COVID situation is…
    ##  3 "@4YNJN oh, we're on a txt lockdown meaning we won't be engaging with fanwar…
    ##  4 "@WClark840WHAS @LMPD @JCPSKY @840WHAS @TalkRadio1080 Kiddo says they’re in …
    ##  5 "ANC's lockdown regulations were very anti black and anti poor. That party h…
    ##  6 "Mandatory #vaccination\nis not free will as promoted. It is an action with …
    ##  7 "ok i’m leaving sprung city and i have officially entered bts lockdown, the …
    ##  8 "!! SPREAD TXT LOCKDOWN !!\n\nIt means our focus now is TXT and ONLY TXT. No…
    ##  9 "JOIN THE TXT LOCKDOWN!!\n\nWe have so many ongoing votings. FOCUS ON TXT!! …
    ## 10 "COVID news live: AstraZeneca vaccine 'may be protecting UK from EU coronavi…
    ## 11 "@MethiaLydiaN The lockdown hasn’t stopped them from their online streams. T…
    ## 12 "Slovakia proposes lockdown amid record infection surge https://t.co/54OONxe…
    ## 13 "COVID news live: AstraZeneca vaccine 'may be protecting UK from EU coronavi…
    ## 14 "@Suits401 @NormaSco19 Why is that anti vac\nIt's anti vax passport and lock…
    ## 15 "Alan Self isolation Day 20 Is Alan the antichrist. https://t.co/UzY9A7bmWB …
    ## 16 "!! SPREAD TXT LOCKDOWN !!\n\nIt means our focus now is TXT and ONLY TXT. No…
    ## 17 "@C_Flurey I finished it in 1st lockdown which gave it a certain tone! I was…
    ## 18 "@srinivas799 @hereforcontent_ Ipude breaking le.. shorting worldwide anni f…
    ## 19 "@GeMa7799 Tre buchi e poi lockdown...\nChe risate"                          
    ## 20 "!! SPREAD TXT LOCKDOWN !!\n\nIt means our focus now is TXT and ONLY TXT. No…
    ## 21 "#COVID UK news live: AstraZeneca vaccine 'may be protecting UK from EU coro…
    ## 22 "MD: change to try manage increase pressure on children social work and staf…
    ## 23 "AstraZeneca vaccine 'may be protecting UK from Europe COVID crisis' https:/…
    ## 24 "Suggestion to go on a voting lockdown. Like mind our important business and…
    ## 25 "Virginia Giuffre isn't going to testify against Ghislaine in court. She wil…
    ## # … with 111 more rows
…
