…
# Save data frame
write_csv(tml, file = "phone_tweets.csv")
```

For the time being, let’s simply use the following data set (which I
uploaded on Canvas), which contains the latest tweets of these companies
from last Monday.

``` r
tweets <- read_csv("phone_tweets.csv")
tweets
```

    ## # A tibble: 12,794 x 90
    ##    user_id status_id created_at          screen_name text  source
    ##      <dbl>     <dbl> <dttm>              <chr>       <chr> <chr> 
    ##  1  2.05e7   1.46e18 2021-11-15 14:44:11 Google      @mth… Conve…
    ##  2  2.05e7   1.46e18 2021-11-15 13:49:44 Google      @dxt… Conve…
    ##  3  2.05e7   1.46e18 2021-11-15 13:26:17 Google      @Cri… Conve…
    ##  4  2.05e7   1.46e18 2021-11-15 12:49:06 Google      @Aji… Conve…
    ##  5  2.05e7   1.46e18 2021-11-15 12:47:24 Google      @joe… Conve…
    ##  6  2.05e7   1.46e18 2021-11-15 11:20:18 Google      @Owa… Conve…
    ##  7  2.05e7   1.46e18 2021-11-15 10:02:41 Google      @nam… Conve…
    ##  8  2.05e7   1.46e18 2021-11-15 09:37:43 Google      @Kit… Conve…
    ##  9  2.05e7   1.46e18 2021-11-15 09:36:42 Google      @mda… Conve…
    ## 10  2.05e7   1.46e18 2021-11-15 09:36:08 Google      @MUB… Conve…
    ## # … with 12,784 more rows, and 84 more variables: display_text_width <dbl>,
    ## #   reply_to_status_id <dbl>, reply_to_user_id <dbl>,
    ## #   reply_to_screen_name <chr>, is_quote <lgl>, is_retweet <lgl>,
    ## #   favorite_count <dbl>, retweet_count <dbl>, quote_count <lgl>,
    ## #   reply_count <lgl>, hashtags <lgl>, symbols <lgl>, urls_url <lgl>,
    ## #   urls_t.co <lgl>, urls_expanded_url <lgl>, media_url <lgl>,
    ## #   media_t.co <lgl>, media_expanded_url <lgl>, media_type <lgl>,
    ## #   ext_media_url <lgl>, ext_media_t.co <lgl>, ext_media_expanded_url <lgl>,
    ## #   ext_media_type <lgl>, mentions_user_id <lgl>, mentions_screen_name <lgl>,
…
``` r
tweets <- tweets %>%
  group_by(screen_name) %>%
  mutate(post_id = paste(user_id, 1:n(), sep = "_")) %>%
  select(user_id, post_id, created_at, screen_name, description, text, favorite_count, retweet_count) %>%
  mutate(text = str_remove_all(text, "#")) %>%       ## removing '#' from the tweets
  ungroup
tweets
```

    ## # A tibble: 12,794 x 8
    ##    user_id post_id created_at          screen_name description text 
    ##      <dbl> <chr>   <dttm>              <chr>       <chr>       <chr>
    ##  1  2.05e7 205361… 2021-11-15 14:44:11 Google      #HeyGoogle  @mth…
    ##  2  2.05e7 205361… 2021-11-15 13:49:44 Google      #HeyGoogle  @dxt…
    ##  3  2.05e7 205361… 2021-11-15 13:26:17 Google      #HeyGoogle  @Cri…
    ##  4  2.05e7 205361… 2021-11-15 12:49:06 Google      #HeyGoogle  @Aji…
    ##  5  2.05e7 205361… 2021-11-15 12:47:24 Google      #HeyGoogle  @joe…
    ##  6  2.05e7 205361… 2021-11-15 11:20:18 Google      #HeyGoogle  @Owa…
    ##  7  2.05e7 205361… 2021-11-15 10:02:41 Google      #HeyGoogle  @nam…
    ##  8  2.05e7 205361… 2021-11-15 09:37:43 Google      #HeyGoogle  @Kit…
    ##  9  2.05e7 205361… 2021-11-15 09:36:42 Google      #HeyGoogle  @mda…
    ## 10  2.05e7 205361… 2021-11-15 09:36:08 Google      #HeyGoogle  @MUB…
    ## # … with 12,784 more rows, and 2 more variables: favorite_count <dbl>,
    ## #   retweet_count <dbl>
…
``` r
result <- dtm_brand %>%
  convert(to = "data.frame") %>% 
  as_tibble
result
```

    ## # A tibble: 12,794 x 7
    ##    doc_id COMPETENCE EXCITEMENT RUGGEDNESS SINCERITY SOPHISTICATION NOT_RELEVANT
    ##    <chr>       <dbl>      <dbl>      <dbl>     <dbl>          <dbl>        <dbl>
    ##  1 20536…          1          0          0         0              0            0
    ##  2 20536…          0          1          0         0              0            0
    ##  3 20536…          0          0          0         0              0            0
    ##  4 20536…          0          0          0         0              0            0
    ##  5 20536…          0          0          0         0              0            0
    ##  6 20536…          0          0          0         0              0            0
    ##  7 20536…          0          0          0         0              0            0
    ##  8 20536…          0          1          0         0              0            0
    ##  9 20536…          0          0          0         0              0            0
    ## 10 20536…          0          0          0         0              0            0
    ## # … with 12,784 more rows
…
In a final step, we know would probably like to combine this results
with the initial data set so that we know which text belonged to which
company.

``` r
tweets2 <- tweets %>% 
  rename(doc_id = post_id) %>%  ## renaming the idea variable to match the result data frame
  inner_join(result) 
tweets2
```

    ## # A tibble: 12,794 x 14
    ##    user_id doc_id created_at          screen_name description text 
    ##      <dbl> <chr>  <dttm>              <chr>       <chr>       <chr>
    ##  1  2.05e7 20536… 2021-11-15 14:44:11 Google      #HeyGoogle  @mth…
    ##  2  2.05e7 20536… 2021-11-15 13:49:44 Google      #HeyGoogle  @dxt…
    ##  3  2.05e7 20536… 2021-11-15 13:26:17 Google      #HeyGoogle  @Cri…
    ##  4  2.05e7 20536… 2021-11-15 12:49:06 Google      #HeyGoogle  @Aji…
    ##  5  2.05e7 20536… 2021-11-15 12:47:24 Google      #HeyGoogle  @joe…
    ##  6  2.05e7 20536… 2021-11-15 11:20:18 Google      #HeyGoogle  @Owa…
    ##  7  2.05e7 20536… 2021-11-15 10:02:41 Google      #HeyGoogle  @nam…
    ##  8  2.05e7 20536… 2021-11-15 09:37:43 Google      #HeyGoogle  @Kit…
    ##  9  2.05e7 20536… 2021-11-15 09:36:42 Google      #HeyGoogle  @mda…
    ## 10  2.05e7 20536… 2021-11-15 09:36:08 Google      #HeyGoogle  @MUB…
    ## # … with 12,784 more rows, and 8 more variables: favorite_count <dbl>,
    ## #   retweet_count <dbl>, COMPETENCE <dbl>, EXCITEMENT <dbl>, RUGGEDNESS <dbl>,
    ## #   SINCERITY <dbl>, SOPHISTICATION <dbl>, NOT_RELEVANT <dbl>
…
You can also download many dictionaries as CSV. For example, the VADER
lexicon is specifically made for analysing social media and includes
important words such as “lol” and “meh” that are not present in most
standard dictionaries:

``` r
url <- "https://raw.githubusercontent.com/cjhutto/vaderSentiment/master/vaderSentiment/vader_lexicon.txt"
vader <- read_delim(url, col_names=c("word","sentiment", "details"),  col_types="cdc",  delim="\t")
vader
```

    ## # A tibble: 7,520 x 4
    ##    word     sentiment details X4                                      
    ##    <chr>        <dbl> <chr>   <chr>                                   
    ##  1 $:            -1.5 0.80623 [-1, -1, -1, -1, -3, -1, -3, -1, -2, -1]
    ##  2 %)            -0.4 1.0198  [-1, 0, -1, 0, 0, -2, -1, 2, -1, 0]     
    ##  3 %-)           -1.5 1.43178 [-2, 0, -2, -2, -1, 2, -2, -3, -2, -3]  
    ##  4 &-:           -0.4 1.42829 [-3, -1, 0, 0, -1, -1, -1, 2, -1, 2]    
    ##  5 &:            -0.7 0.64031 [0, -1, -1, -1, 1, -1, -1, -1, -1, -1]  
    ##  6 ( '}{' )       1.6 0.66332 [1, 2, 2, 1, 1, 2, 2, 1, 3, 1]          
    ##  7 (%            -0.9 0.9434  [0, 0, 1, -1, -1, -1, -2, -2, -1, -2]   
    ##  8 ('-:           2.2 1.16619 [4, 1, 4, 3, 1, 2, 3, 1, 2, 1]          
    ##  9 (':            2.3 0.9     [1, 3, 3, 2, 2, 4, 2, 3, 1, 2]          
    ## 10 ((-:           2.1 0.53852 [2, 2, 2, 1, 2, 3, 2, 2, 3, 2]          
    ## # … with 7,510 more rows
…
## Creating sentiment scores

``` r
sentiment <- sentiment %>% 
  mutate(sentiment1 = (positive - negative) / (positive + negative),
         sentiment2 = (positive - negative) / length,
         subjectivity = (positive + negative) / length)
sentiment
```

    ## # A tibble: 12,794 x 7
    ##    doc_id      negative positive length sentiment1 sentiment2 subjectivity
    ##    <chr>          <dbl>    <dbl>  <int>      <dbl>      <dbl>        <dbl>
    ##  1 20536157_1         1        3     23      0.5       0.0870        0.174
    ##  2 20536157_2         5        5     51      0         0             0.196
    ##  3 20536157_3         2        3     32      0.2       0.0312        0.156
    ##  4 20536157_4         2        1     29     -0.333    -0.0345        0.103
    ##  5 20536157_5         2        2     28      0         0             0.143
    ##  6 20536157_6         2        4     32      0.333     0.0625        0.188
    ##  7 20536157_7         2        2     28      0         0             0.143
    ##  8 20536157_8         4        5     43      0.111     0.0233        0.209
    ##  9 20536157_9         1        4     30      0.6       0.1           0.167
    ## 10 20536157_10        2        4     32      0.333     0.0625        0.188
    ## # … with 12,784 more rows

As a final step, we can again add this data.frame to our original data
frame that contains the tweets and companies

``` r
tweets3 <- tweets %>% 
  rename(doc_id = post_id) %>%  ## renaming the idea variable to match the result data frame
  inner_join(sentiment) 
tweets3
```

    ## # A tibble: 12,794 x 14
    ##    user_id doc_id created_at          screen_name description text 
    ##      <dbl> <chr>  <dttm>              <chr>       <chr>       <chr>
    ##  1  2.05e7 20536… 2021-11-15 14:44:11 Google      #HeyGoogle  @mth…
    ##  2  2.05e7 20536… 2021-11-15 13:49:44 Google      #HeyGoogle  @dxt…
    ##  3  2.05e7 20536… 2021-11-15 13:26:17 Google      #HeyGoogle  @Cri…
    ##  4  2.05e7 20536… 2021-11-15 12:49:06 Google      #HeyGoogle  @Aji…
    ##  5  2.05e7 20536… 2021-11-15 12:47:24 Google      #HeyGoogle  @joe…
    ##  6  2.05e7 20536… 2021-11-15 11:20:18 Google      #HeyGoogle  @Owa…
    ##  7  2.05e7 20536… 2021-11-15 10:02:41 Google      #HeyGoogle  @nam…
    ##  8  2.05e7 20536… 2021-11-15 09:37:43 Google      #HeyGoogle  @Kit…
    ##  9  2.05e7 20536… 2021-11-15 09:36:42 Google      #HeyGoogle  @mda…
    ## 10  2.05e7 20536… 2021-11-15 09:36:08 Google      #HeyGoogle  @MUB…
    ## # … with 12,784 more rows, and 8 more variables: favorite_count <dbl>,
    ## #   retweet_count <dbl>, negative <dbl>, positive <dbl>, length <int>,
    ## #   sentiment1 <dbl>, sentiment2 <dbl>, subjectivity <dbl>
…
