…
## Assigning topics to tweets

If we group by documents and filter out the max probability, we assign
each tweet the most probable topic (in some cases, this can mean that
two topics with the same probabilities are both assigned to a text):

``` r
(topic_table <- topic_prob_long %>%
  group_by(docs) %>%
  filter(value == max(value)))
```

    ## # A tibble: 5,707 × 3
    ## # Groups:   docs [4,989]
    ##    docs     topic value
    ##    <chr>    <chr> <dbl>
    ##  1 text1    2     0.569
    ##  2 text10   2     0.525
    ##  3 text100  9     0.555
    ##  4 text1000 9     0.775
    ##  5 text1001 10    0.82 
    ##  6 text1002 8     0.443
    ##  7 text1003 2     0.7  
    ##  8 text1004 6     0.7  
    ##  9 text1005 5     0.35 
    ## 10 text1005 9     0.35 
    ## # … with 5,697 more rows
…
