…
Usually, coding our tweets manually is not really the end goal of our
analysis. Instead, we now can use this information to further analyze
our text. A first very simple analysis could be to summarize the amount
of times each brand personality dimension was mentioned by the different
companies.

``` r
plot_data <- dict_results |> 
  group_by(screen_name, sentiment) |> 
  summarize(n = n()) |>
  mutate(prop = n/sum(n))
plot_data
```

    ## # A tibble: 24 × 4
    ## # Groups:   screen_name [4]
    ##    screen_name sentiment          n      prop
    ##    <chr>       <chr>          <int>     <dbl>
    ##  1 Google      competence       593 0.00663  
    ##  2 Google      excitement       305 0.00341  
    ##  3 Google      ruggedness        30 0.000336 
    ##  4 Google      sincerity        253 0.00283  
    ##  5 Google      sophistication     1 0.0000112
    ##  6 Google      <NA>           88218 0.987    
    ##  7 Huawei      competence      1191 0.0129   
    ##  8 Huawei      excitement       395 0.00429  
    ##  9 Huawei      ruggedness        92 0.000999 
    ## 10 Huawei      sincerity       1086 0.0118   
    ## # ℹ 14 more rows
…
